@startuml
left to right direction
hide circle
skinparam classAttributeIconSize 0


title Domain Model


'Project Aggregate:--------------------------------------------------
class Typology #Yellow{
- description
}

@enduml