@startuml
left to right direction
hide circle
skinparam classAttributeIconSize 0


title Domain Model


'Project Aggregate:--------------------------------------------------
class UserStory #Yellow{
- startDate
- endDate
- title
- description
- priority
- usCancelled
- usHour
- usParent
}

@enduml